Final Project
…
Data Science for Biologists, Spring 2021

Vinny Varghese

Introduction

The data set that I chose was from kaggle.com, and it is called heart.csv. This dataset analyzes heart attacks and some of the factors that goes into predicting if a person will have a heart attack. Since I want to go into the medical field, this data set caught my eye. If using the techniques we learned in class this year can do an accurate job at predicting heart attacks, it will bode well for the future of the medical field.

This is the link to the Heart Attack Dataset

heart <- read_csv("varghese_heart.csv") 
heart

## # A tibble: 303 x 14
##      age   sex    cp trtbps  chol   fbs restecg thalachh  exng oldpeak   slp
##    <dbl> <dbl> <dbl>  <dbl> <dbl> <dbl>   <dbl>    <dbl> <dbl>   <dbl> <dbl>
##  1    63     1     3    145   233     1       0      150     0     2.3     0
##  2    37     1     2    130   250     0       1      187     0     3.5     0
##  3    41     0     1    130   204     0       0      172     0     1.4     2
##  4    56     1     1    120   236     0       1      178     0     0.8     2
##  5    57     0     0    120   354     0       1      163     1     0.6     2
##  6    57     1     0    140   192     0       1      148     0     0.4     1
##  7    56     0     1    140   294     0       0      153     0     1.3     1
##  8    44     1     1    120   263     0       1      173     0     0       2
##  9    52     1     2    172   199     1       1      162     0     0.5     2
## 10    57     1     2    150   168     0       1      174     0     1.6     2
## #  with 293 more rows, and 3 more variables: caa <dbl>, thall <dbl>,
## #   output <dbl>
…
